Project 1
…
#I decided to complete an inner join because it was the join that would create the most cohesive data set. A full join would have added an extra observation (the United States as one of the “states”) that would have several NA variables. I wanted to drop that case, and so I completed an inner join, which dropped the US observation which had come from the insurance dataset.

falsetidy <- fullprojdata %>% pivot_longer(c("Uninsured.Rate..2010.","Uninsured.Rate..2015."), names_to="UninsuredYear", values_to="PctUninsured")

falsetidy %>% pivot_wider(names_from="UninsuredYear", values_from="PctUninsured")

## # A tibble: 51 x 11
##    State CancerType Year  Sex   Race  AgeAdjustedRate CaseCount Population
##    <fct> <fct>      <fct> <fct> <fct>           <dbl>     <int>      <int>
##  1 Wyom… 'All Type… '201… 'Mal… 'All…            412.      2875     578934
##  2 Neva… 'All Type… '201… 'Mal… 'All…            405.     14105    2972405
##  3 Rhod… 'All Type… '201… 'Mal… 'All…            434.      5841    1056486
##  4 Colo… 'All Type… '201… 'Mal… 'All…            394.     24226    5615902
##  5 Geor… 'All Type… '201… 'Mal… 'All…            461.     52690   10413055
##  6 Mont… 'All Type… '201… 'Mal… 'All…            467.      6426    1053090
##  7 Texas 'All Type… '201… 'Mal… 'All…            400.    114402   28322717
##  8 Mary… 'All Type… '201… 'Mal… 'All…            443.     31735    6024891
##  9 Idaho 'All Type… '201… 'Mal… 'All…            436.      8624    1718904
## 10 New … 'All Type… '201… 'Mal… 'All…            361.      9261    2093395
## # … with 41 more rows, and 3 more variables:
## #   Uninsured.Rate.Change..2010.2015. <dbl>, Uninsured.Rate..2010. <dbl>,
## #   Uninsured.Rate..2015. <dbl>
…
